Prepare a network data structure by transforming, scoring, and weighting based on road types and conditions — prepare_network • corenet
…
# Prepare the network
prepared_network = prepare_network(network, 
                                    key_attribute = "all_fastest_bicycle_go_dutch",
                                    road_scores = road_scores,
                                    transform_crs = 27700, penalty_value = 1)

# Print the prepared network
print(prepared_network)
#> # A sfnetwork with 1124 nodes and 1237 edges
#> #
#> # CRS:  EPSG:27700 
#> #
#> # An undirected multigraph with 1 component with spatially explicit edges
#> #
#> # A tibble: 1,237 × 12
#>    from    to road_function all_fastest_bicycle_go_dutch length_x
#>   <int> <int> <chr>                                <int>    <int>
#> 1     1     2 A Road                             1461109        0
#> 2     3     4 Minor Road                             919      321
#> 3     5     6 A Road                                8153       34
#> 4     7     8 A Road                                5646       49
#> 5     9    10 A Road                               10654       26
#> 6    11    12 Minor Road                            8756       33
#> # ℹ 1,231 more rows
#> # ℹ 7 more variables: geom <LINESTRING [m]>, value <dbl>, max_value <dbl>,
#> #   arterialness <dbl>, road_score <dbl>, weight <dbl>, penalty <dbl>
#> #
#> # A tibble: 1,124 × 1
#>                  geom
#>           <POINT [m]>
#> 1 (324910.8 672963.1)
#> 2 (324910.7 672963.3)
#> 3     (327256 672497)
#> # ℹ 1,121 more rows
…
